dmppl/experiments/eva/tst/praxi_7k.vcd
$version Generated by VerilatedVcd $end
$date Thu Feb  1 13:32:39 2018
 $end
$timescale   1ns $end

 $scope module TOP $end
  $var wire  1 J i_clk $end
  $var wire  1 K i_rst $end
  $scope module probsys0 $end
   $var wire 32 M AXI_ADDR_W [31:0] $end
   $var wire 32 N AXI_DATA_W [31:0] $end
   $var wire 32 O AXI_ID_W [31:0] $end
   $var wire 32 P AXI_N_PAGEWORDS [31:0] $end
   $var wire 32 Q AXI_SLV0_ADDR_BASE [31:0] $end
   $var wire 32 M N_PAGE [31:0] $end
   $var wire 32 T OFFSET_H [31:0] $end
   $var wire 32 S OFFSET_L [31:0] $end
   $var wire 32 R OFFSET_W [31:0] $end
   $var wire 32 V PAGENUM_H [31:0] $end
   $var wire 32 U PAGENUM_L [31:0] $end
   $var wire 32 O PAGENUM_W [31:0] $end
   $var wire 32 L PROB_W [31:0] $end
   $var wire 16 / axi_araddr [15:0] $end
   $var wire  4 . axi_arid [3:0] $end
   $var wire  3 X axi_arprot [2:0] $end
   $var wire  1 1 axi_arready $end
   $var wire  1 0 axi_arvalid $end
   $var wire 16 $ axi_awaddr [15:0] $end
   $var wire  4 # axi_awid [3:0] $end
   $var wire  3 W axi_awprot [2:0] $end
   $var wire  1 & axi_awready $end
   $var wire  1 % axi_awvalid $end
   $var wire  4 + axi_bid [3:0] $end
   $var wire  1 E axi_bready $end
   $var wire  2 , axi_bresp [1:0] $end
   $var wire  1 - axi_bvalid $end
   $var wire 32 3 axi_rdata [31:0] $end
   $var wire  4 2 axi_rid [3:0] $end
   $var wire  1 F axi_rready $end
   $var wire  2 4 axi_rresp [1:0] $end
   $var wire  1 5 axi_rvalid $end
   $var wire 32 ' axi_wdata [31:0] $end
   $var wire  1 * axi_wready $end
   $var wire  4 ( axi_wstrb [3:0] $end
   $var wire  1 ) axi_wvalid $end
   $var wire  1 J i_clk $end
   $var wire  1 K i_rst $end
   $var wire 16 B mon_ar_pagenum [15:0] $end
   $var wire  1 9 mon_ar_tfr $end
   $var wire 16 A mon_aw_pagenum [15:0] $end
   $var wire  1 6 mon_aw_tfr $end
   $var wire  1 ; mon_b_decerr $end
   $var wire  1 = mon_b_okay $end
   $var wire  1 < mon_b_slverr $end
   $var wire  1 8 mon_b_tfr $end
   $var wire  1 > mon_r_decerr $end
   $var wire  1 @ mon_r_okay $end
   $var wire  1 ? mon_r_slverr $end
   $var wire  1 : mon_r_tfr $end
   $var wire  1 7 mon_w_tfr $end
   $var wire  1 G slv_o_busy $end
   $var wire  1 H slv_o_idle $end
   $var wire  1 I slv_o_stall $end
   $var wire 32 C timetrack_d [31:0] $end
   $var wire 32 D timetrack_q [31:0] $end
  $upscope $end
 $upscope $end
$enddefinitions $end


#0
b0000 #
b0000000000000000 $
0%
0&
b00000000000000000000000000000000 '
b0000 (
0)
0*
b0000 +
b00 ,
0-
b0000 .
b0000000000000000 /
00
01
b0000 2
b00000000000000000000000000000000 3
b00 4
05
06
07
08
09
0:
0;
0<
0=
0>
0?
0@
b0000000000000000 A
b0000000000000000 B
b00000000000000000000000000000001 C
b00000000000000000000000000000000 D
0E
0F
0G
1H
0I
0J
0K
b00000000000000000000000000001000 L
b00000000000000000000000000010000 M
b00000000000000000000000000100000 N
b00000000000000000000000000000100 O
b00000000000000000000010000000000 P
b11001010111111100000000000000000 Q
b00000000000000000000000000001010 R
b00000000000000000000000000000010 S
b00000000000000000000000000001011 T
b00000000000000000000000000001100 U
b00000000000000000000000000001111 V
b000 W
b000 X
#8
#10
1&
1*
10
b00000000000000000000000000000010 C
b00000000000000000000000000000001 D
1E
1F
1J
#15
0J
#18
#20
1)
11
17
19
b0000000000000001 B
b00000000000000000000000000000011 C
b00000000000000000000000000000010 D
1J
#25
0J
#28
#30
b10100000000111101100010011110001 '
b1001 (
0)
b0001 .
b0010011110011110 /
00
15
07
09
1:
1@
b0000000000000000 B
b00000000000000000000000000000100 C
b00000000000000000000000000000011 D
1G
0H
1J
#35
0J
#38
#40
05
0:
0@
b00000000000000000000000000000101 C
b00000000000000000000000000000100 D
0G
1J
#45
0J
#48
#50
b00000000000000000000000000000110 C
b00000000000000000000000000000101 D
1J
#55
0J
#58
#60
b00000000000000000000000000000111 C
b00000000000000000000000000000110 D
1J
#65
0J
#68
#70
10
01
b00000000000000000000000000001000 C
b00000000000000000000000000000111 D
1H
1J
#75
0J
#78
#80
11
b0001 2
b11 4
19
b0000000000000100 B
b00000000000000000000000000001001 C
b00000000000000000000000000001000 D
1J
#85
0J
#88
#90
b1010 .
b1100110000000000 /
b0001000000000000 B
b00000000000000000000000000001010 C
b00000000000000000000000000001001 D
1G
0H
1I
1J
#95
0J
#98
#100
b0100 .
b1100001001001100 /
00
15
09
1:
1>
b0000000000000000 B
b00000000000000000000000000001011 C
b00000000000000000000000000001010 D
0E
0I
1J
#105
0J
#108
#110
b1010 2
05
0:
0>
b00000000000000000000000000001100 C
b00000000000000000000000000001011 D
1I
1J
#115
0J
#118
#120
01
15
1:
1>
b00000000000000000000000000001101 C
b00000000000000000000000000001100 D
1E
0I
1J
#125
0J
#128
#130
10
11
b0100 2
05
19
0:
0>
b0001000000000000 B
b00000000000000000000000000001110 C
b00000000000000000000000000001101 D
0G
1J
#135
0J
#138
#140
b1001 .
b0011110010100110 /
01
15
09
1:
1>
b0000000000000000 B
b00000000000000000000000000001111 C
b00000000000000000000000000001110 D
1G
1J
#145
0J
#148
#150
11
b1001 2
05
19
0:
0>
b0000000000001000 B
b00000000000000000000000000010000 C
b00000000000000000000000000001111 D
0G
1J
#155
0J
#158
#160
b1100 .
b0010010000000001 /
00
15
09
b0000000000000000 B
b00000000000000000000000000010001 C
b00000000000000000000000000010000 D
0F
1G
1J
#165
0J
#168
#170
10
19
b0000000000000100 B
b00000000000000000000000000010010 C
b00000000000000000000000000010001 D
0E
1J
#175
0J
#178
#180
b1111 .
b0000110110110010 /
00
09
1:
1>
b0000000000000000 B
b00000000000000000000000000010011 C
b00000000000000000000000000010010 D
1E
1F
1J
#185
0J
#188
#190
b1100 2
b00000000000000000000000100000000 3
b00000000000000000000000000010100 C
b00000000000000000000000000010011 D
1J
#195
0J
#198
#200
1%
10
b1111 2
b00000000000000000000000000000000 3
b10 4
05
16
19
0:
0>
b0000000000000001 A
b0000000000000001 B
b00000000000000000000000000010101 C
b00000000000000000000000000010100 D
0F
0G
1J
#205
0J
#208
#210
b0001 #
b0000111000101010 $
0%
1-
b1010 .
b0000000010011111 /
15
06
18
1:
1=
1?
b0000000000000000 A
b00000000000000000000000000010110 C
b00000000000000000000000000010101 D
0E
1F
1G
1J
#215
0J
#218
#220
1)
b1011 .
b0000011101101001 /
b1010 2
b00000000000000010000000000000000 3
17
b00000000000000000000000000010111 C
b00000000000000000000000000010110 D
1E
1J
#225
0J
#228
#230
b01100111011111111011000001110010 '
b1000 (
0-
b1000 .
b1111000000001001 /
00
b1011 2
b00000000000000000000000000000000 3
b00 4
08
09
0:
0=
0?
b0000000000000000 B
b00000000000000000000000000011000 C
b00000000000000000000000000010111 D
0F
1J
#235
0J
#238
#240
b10101110011101011111110010100100 '
b0011 (
0)
01
07
1:
1@
b00000000000000000000000000011001 C
b00000000000000000000000000011000 D
1F
1J
#245
0J
#248
#250
11
b0001 2
b11 4
05
0:
0@
b00000000000000000000000000011010 C
b00000000000000000000000000011001 D
0G
1J
#255
0J
#258
#260
1%
b0001 +
16
b0000000000000001 A
b00000000000000000000000000011011 C
b00000000000000000000000000011010 D
1J
#265
0J
#268
#270
b1010 #
b1111100010000000 $
0%
1)
1-
10
b1000 2
06
17
18
19
1=
b0000000000000000 A
b1000000000000000 B
b00000000000000000000000000011100 C
b00000000000000000000000000011011 D
1G
1J
#275
0J
#278
#280
b11101110110101010101110111001001 '
b1100 (
0)
b0000 +
0-
b0100 .
b0111001101111100 /
00
01
07
08
09
0=
b0000000000000000 B
b00000000000000000000000000011101 C
b00000000000000000000000000011100 D
0E
1I
1J
#285
0J
#288
#290
11
15
1:
1>
b00000000000000000000000000011110 C
b00000000000000000000000000011101 D
1E
0I
1J
#295
0J
#298
#300
10
b0100 2
05
19
0:
0>
b0000000010000000 B
b00000000000000000000000000011111 C
b00000000000000000000000000011110 D
0G
1J
#305
0J
#308
#310
b1011 .
b0011101000100000 /
00
09
b0000000000000000 B
b00000000000000000000000000100000 C
b00000000000000000000000000011111 D
1G
1I
1J
#315
0J
#318
#320
1%
b1010 +
b11 ,
16
b1000000000000000 A
b00000000000000000000000000100001 C
b00000000000000000000000000100000 D
1J
#325
0J
#328
#330
b0010011010010101 $
0%
1-
15
06
18
1:
1;
1>
b0000000000000000 A
b00000000000000000000000000100010 C
b00000000000000000000000000100001 D
0I
1J
#335
0J
#338
#340
b0000 +
b00 ,
0-
05
08
0:
0;
0>
b00000000000000000000000000100011 C
b00000000000000000000000000100010 D
0G
1J
#345
0J
#348
#350
b00000000000000000000000000100100 C
b00000000000000000000000000100011 D
1J
#355
0J
#358
#360
b00000000000000000000000000100101 C
b00000000000000000000000000100100 D
1J
#365
0J
#368
#370
0*
b00000000000000000000000000100110 C
b00000000000000000000000000100101 D
1H
1J
#375
0J
#378
#380
1*
b00000000000000000000000000100111 C
b00000000000000000000000000100110 D
0F
1J
#385
0J
#388
#390
1%
b1010 +
b11 ,
16
b0000000000000100 A
b00000000000000000000000000101000 C
b00000000000000000000000000100111 D
1F
1J
#395
0J
#398
#400
b0111 #
b0110110101100001 $
b0000000001000000 A
b00000000000000000000000000101001 C
b00000000000000000000000000101000 D
1G
0H
1I
1J
#405
0J
#408
#410
b1001 #
b1011111100000010 $
0%
06
b0000000000000000 A
b00000000000000000000000000101010 C
b00000000000000000000000000101001 D
0F
1J
#415
0J
#418
#420
1-
18
1;
b00000000000000000000000000101011 C
b00000000000000000000000000101010 D
1F
0I
1J
#425
0J
#428
#430
b0111 +
10
b1011 2
19
b0000000000001000 B
b00000000000000000000000000101100 C
b00000000000000000000000000101011 D
0E
1J
#435
0J
#438
#440
b1110 .
b1001101101100110 /
00
15
09
1:
1>
b0000000000000000 B
b00000000000000000000000000101101 C
b00000000000000000000000000101100 D
1E
1J
#445
0J
#448
#450
b0000 +
b00 ,
0-
b1001 2
05
08
0:
0;
0>
b00000000000000000000000000101110 C
b00000000000000000000000000101101 D
0F
0G
1J
#455
0J
#458
#460
01
b00000000000000000000000000101111 C
b00000000000000000000000000101110 D
1F
1J
#465
0J
#468
#470
1)
11
17
b00000000000000000000000000110000 C
b00000000000000000000000000101111 D
0E
0F
1J
#475
0J
#478
#480
b11101010110010100111101100111101 '
b0100 (
0)
07
b00000000000000000000000000110001 C
b00000000000000000000000000110000 D
1E
1F
1H
1J
#485
0J
#488
#490
b00000000000000000000000000110010 C
b00000000000000000000000000110001 D
0F
1J
#495
0J
#498
#500
10
01
b00000000000000000000000000110011 C
b00000000000000000000000000110010 D
1J
#505
0J
#508
#510
11
b1110 2
19
b0000001000000000 B
b00000000000000000000000000110100 C
b00000000000000000000000000110011 D
1J
#515
0J
#518
#520
b0110 .
b1000110011100000 /
15
1:
1>
b0000000100000000 B
b00000000000000000000000000110101 C
b00000000000000000000000000110100 D
0E
1F
1G
0H
1J
#525
0J
#528
#530
0*
b0011 .
b1101001111001000 /
00
b0110 2
09
b0000000000000000 B
b00000000000000000000000000110110 C
b00000000000000000000000000110101 D
1E
1J
#535
0J
#538
#540
1*
b1111 2
b10 4
05
0:
0>
b00000000000000000000000000110111 C
b00000000000000000000000000110110 D
0F
0G
1J
#545
0J
#548
#550
b00000000000000000000000000111000 C
b00000000000000000000000000110111 D
0E
1F
1J
#555
0J
#558
#560
b00000000000000000000000000111001 C
b00000000000000000000000000111000 D
1E
1J
#565
0J
#568
#570
b00000000000000000000000000111010 C
b00000000000000000000000000111001 D
1H
1J
#575
0J
#578
#580
b00000000000000000000000000111011 C
b00000000000000000000000000111010 D
1J
#585
0J
#588
#590
b00000000000000000000000000111100 C
b00000000000000000000000000111011 D
1J
#595
0J
#598
#600
1)
17
b00000000000000000000000000111101 C
b00000000000000000000000000111100 D
1J
#605
0J
#608
#610
b11001000000100111000001000101100 '
b1100 (
0)
07
b00000000000000000000000000111110 C
b00000000000000000000000000111101 D
1J
#615
0J
#618
#620
1%
1)
b1001 +
b11 ,
10
b0011 2
b11 4
16
17
19
b0000100000000000 A
b0010000000000000 B
b00000000000000000000000000111111 C
b00000000000000000000000000111110 D
0E
1J
#625
0J
#628
#630
b1010 #
b0010111011111100 $
0%
b11100001001110100001011101100011 '
b0011 (
1-
b1101 .
b1110110001000010 /
00
06
18
09
1;
b0000000000000000 A
b0000000000000000 B
b00000000000000000000000001000000 C
b00000000000000000000000000111111 D
1E
1G
0H
1I
1J
#635
0J
#638
#640
b00100111101111001001001000100000 '
b0001 (
0)
b0000 +
b00 ,
0-
15
07
08
1:
0;
1>
b00000000000000000000000001000001 C
b00000000000000000000000001000000 D
0I
1J
#645
0J
#648
#650
b1010 2
b00000000000000010000000000000000 3
b10 4
05
0:
0>
b00000000000000000000000001000010 C
b00000000000000000000000001000001 D
0G
1J
#655
0J
#658
#660
10
b1101 2
b00000001000000000000000000000000 3
b11 4
19
b0100000000000000 B
b00000000000000000000000001000011 C
b00000000000000000000000001000010 D
0F
1J
#665
0J
#668
#670
b1000 .
b1011000100001011 /
00
01
15
09
b0000000000000000 B
b00000000000000000000000001000100 C
b00000000000000000000000001000011 D
1G
1J
#675
0J
#678
#680
10
11
19
1:
1>
b0000100000000000 B
b00000000000000000000000001000101 C
b00000000000000000000000001000100 D
1F
1J
#685
0J
#688
#690
1%
0*
b1010 +
b11 ,
b0101 .
b0101100001000011 /
b1000 2
b00000000000000000000000000000000 3
16
0:
0>
b0000000000000100 A
b0000000000100000 B
b00000000000000000000000001000110 C
b00000000000000000000000001000101 D
0E
0F
1J
#695
0J
#698
#700
b1111 #
b0111110101000100 $
0%
1)
1*
1-
b0001 .
b0011110010101011 /
06
17
18
1:
1;
1>
b0000000000000000 A
b0000000000001000 B
b00000000000000000000000001000111 C
b00000000000000000000000001000110 D
1E
1F
1J
#705
0J
#708
#710
b11000011111101111011101010011001 '
b0100 (
0)
b0000 +
b00 ,
0-
b0100 .
b1000001001110011 /
00
b0101 2
05
07
08
09
0:
0;
0>
b0000000000000000 B
b00000000000000000000000001001000 C
b00000000000000000000000001000111 D
0E
1I
1J
#715
0J
#718
#720
b00000000000000000000000001001001 C
b00000000000000000000000001001000 D
1E
1J
#725
0J
#728
#730
10
15
19
b0000000100000000 B
b00000000000000000000000001001010 C
b00000000000000000000000001001001 D
0F
0I
1J
#735
0J
#738
#740
b0000 .
b0011110010101010 /
00
09
1:
1>
b0000000000000000 B
b00000000000000000000000001001011 C
b00000000000000000000000001001010 D
1F
1J
#745
0J
#748
#750
b0001 2
0:
0>
b00000000000000000000000001001100 C
b00000000000000000000000001001011 D
0F
1J
#755
0J
#758
#760
10
19
1:
1>
b0000000000001000 B
b00000000000000000000000001001101 C
b00000000000000000000000001001100 D
1F
1J
#765
0J
#768
#770
b1100 .
b0010110100011010 /
00
b0100 2
09
b0000000000000000 B
b00000000000000000000000001001110 C
b00000000000000000000000001001101 D
1J
#775
0J
#778
#780
10
b0000 2
19
0:
0>
b0000000000000100 B
b00000000000000000000000001001111 C
b00000000000000000000000001001110 D
0F
1J
#785
0J
#788
#790
b1111 .
b0101010001000010 /
00
09
1:
1>
b0000000000000000 B
b00000000000000000000000001010000 C
b00000000000000000000000001001111 D
1F
1I
1J
#795
0J
#798
#800
01
b1100 2
0:
0>
b00000000000000000000000001010001 C
b00000000000000000000000001010000 D
0F
0I
1J
#805
0J
#808
#810
11
b00000000000000000000000001010010 C
b00000000000000000000000001010001 D
1J
#815
0J
#818
#820
b00000000000000000000000001010011 C
b00000000000000000000000001010010 D
1J
#825
0J
#828
#830
1:
1>
b00000000000000000000000001010100 C
b00000000000000000000000001010011 D
1F
1J
#835
0J
#838
#840
b0011 2
05
0:
0>
b00000000000000000000000001010101 C
b00000000000000000000000001010100 D
0F
0G
1J
#845
0J
#848
#850
b00000000000000000000000001010110 C
b00000000000000000000000001010101 D
1F
1J
#855
0J
#858
#860
10
b1111 2
19
b0000000000100000 B
b00000000000000000000000001010111 C
b00000000000000000000000001010110 D
1J
#865
0J
#868
#870
b0111 .
b0011110010110000 /
00
15
09
b0000000000000000 B
b00000000000000000000000001011000 C
b00000000000000000000000001010111 D
0E
0F
1G
1J
#875
0J
#878
#880
10
19
1:
1>
b0000000000001000 B
b00000000000000000000000001011001 C
b00000000000000000000000001011000 D
1F
1J
#885
0J
#888
#890
b0010000101111101 /
00
b0111 2
09
b0000000000000000 B
b00000000000000000000000001011010 C
b00000000000000000000000001011001 D
1J
#895
0J
#898
#900
b1000 2
05
0:
0>
b00000000000000000000000001011011 C
b00000000000000000000000001011010 D
0F
0G
1J
#905
0J
#908
#910
1)
17
b00000000000000000000000001011100 C
b00000000000000000000000001011011 D
1E
1F
1J
#915
0J
#918
#920
b11000001101011111110010010111001 '
b1011 (
0)
01
07
b00000000000000000000000001011101 C
b00000000000000000000000001011100 D
1J
#925
0J
#928
#930
11
b00000000000000000000000001011110 C
b00000000000000000000000001011101 D
1H
1J
#935
0J
#938
#940
01
b00000000000000000000000001011111 C
b00000000000000000000000001011110 D
0E
1J
#945
0J
#948
#950
b00000000000000000000000001100000 C
b00000000000000000000000001011111 D
1E
1J
#955
0J
#958
#960
1%
b1111 +
b11 ,
11
16
b0000000010000000 A
b00000000000000000000000001100001 C
b00000000000000000000000001100000 D
0E
0F
1J
#965
0J
#968
#970
b1110001111001010 $
0%
1)
1-
06
17
18
1;
b0000000000000000 A
b00000000000000000000000001100010 C
b00000000000000000000000001100001 D
1E
1F
1G
0H
1J
#975
0J
#978
#980
b10001110110011011111011010000110 '
b1100 (
0)
b0000 +
b00 ,
0-
10
b0111 2
07
08
19
0;
b0000000000000100 B
b00000000000000000000000001100011 C
b00000000000000000000000001100010 D
0F
0G
1J
#985
0J
#988
#990
b0101 .
b1000000001100000 /
00
15
09
1:
1>
b0000000000000000 B
b00000000000000000000000001100100 C
b00000000000000000000000001100011 D
1F
1G
1J
#995
0J
#998
#1000
1)
10
b0101 2
05
17
19
0:
0>
b0000000100000000 B
b00000000000000000000000001100101 C
b00000000000000000000000001100100 D
0G
1J
#1005
0J
#1008
#1010
b00001101111110000000001010101111 '
b0010 (
b0000011110011001 /
15
1:
1>
b0000000000000001 B
b00000000000000000000000001100110 C
b00000000000000000000000001100101 D
0E
1G
1J
#1015
0J
#1018
#1020
b00001011100011010011111001010000 '
0)
b1110 .
b1001100010011101 /
00
b00 4
07
09
0:
0>
b0000000000000000 B
b00000000000000000000000001100111 C
b00000000000000000000000001100110 D
1E
0F
1J
#1025
0J
#1028
#1030
10
19
b0000001000000000 B
b00000000000000000000000001101000 C
b00000000000000000000000001100111 D
0E
1J
#1035
0J
#1038
#1040
b0000 .
b1100110101011000 /
00
09
1:
1@
b0000000000000000 B
b00000000000000000000000001101001 C
b00000000000000000000000001101000 D
1E
1F
1I
1J
#1045
0J
#1048
#1050
10
b1110 2
b11 4
19
1>
0@
b0001000000000000 B
b00000000000000000000000001101010 C
b00000000000000000000000001101001 D
0I
1J
#1055
0J
#1058
#1060
b1110 .
b1100110010000011 /
b0000 2
0:
0>
b00000000000000000000000001101011 C
b00000000000000000000000001101010 D
0F
1J
#1065
0J
#1068
#1070
1)
b0011 .
b0100000111001001 /
00
17
09
b0000000000000000 B
b00000000000000000000000001101100 C
b00000000000000000000000001101011 D
1J
#1075
0J
#1078
#1080
b10001010011111011001000011101001 '
b1100 (
0)
10
07
19
b0000000000010000 B
b00000000000000000000000001101101 C
b00000000000000000000000001101100 D
0E
1I
1J
#1085
0J
#1088
#1090
b1111 .
b0010100000010110 /
00
09
1:
1>
b0000000000000000 B
b00000000000000000000000001101110 C
b00000000000000000000000001101101 D
1E
1F
0I
1J
#1095
0J
#1098
#1100
01
b1110 2
0:
0>
b00000000000000000000000001101111 C
b00000000000000000000000001101110 D
0F
1J
#1105
0J
#1108
#1110
0&
11
1:
1>
b00000000000000000000000001110000 C
b00000000000000000000000001101111 D
0E
1F
1I
1J
#1115
0J
#1118
#1120
1&
b0011 2
b00000000000000000000000001110001 C
b00000000000000000000000001110000 D
1E
0I
1J
#1125
0J
#1128
#1130
b0111 2
05
0:
0>
b00000000000000000000000001110010 C
b00000000000000000000000001110001 D
0G
1J
#1135
0J
#1138
#1140
b00000000000000000000000001110011 C
b00000000000000000000000001110010 D
1J
#1145
0J
#1148
#1150
b00000000000000000000000001110100 C
b00000000000000000000000001110011 D
1J
#1155
0J
#1158
#1160
01
b00000000000000000000000001110101 C
b00000000000000000000000001110100 D
0F
1H
1J
#1165
0J
#1168
#1170
11
b00000000000000000000000001110110 C
b00000000000000000000000001110101 D
1J
#1175
0J
#1178
#1180
0*
b00000000000000000000000001110111 C
b00000000000000000000000001110110 D
0E
1F
1J
#1185
0J
#1188
#1190
1*
01
b00000000000000000000000001111000 C
b00000000000000000000000001110111 D
1E
1J
#1195
0J
#1198
#1200
1)
11
17
b00000000000000000000000001111001 C
b00000000000000000000000001111000 D
1J
#1205
0J
#1208
#1210
b10100000100111001100010000010101 '
b00000000000000000000000001111010 C
b00000000000000000000000001111001 D
1J
#1215
0J
#1218
#1220
b00100111101111001001001000100000 '
b0001 (
0)
0*
07
b00000000000000000000000001111011 C
b00000000000000000000000001111010 D
0E
0F
1J
#1225
0J
#1228
#1230
b00000000000000000000000001111100 C
b00000000000000000000000001111011 D
1E
1F
1J
#1235
0J
#1238
#1240
b00000000000000000000000001111101 C
b00000000000000000000000001111100 D
0F
1J
#1245
0J
#1248
#1250
10
b1111 2
b00000000000000000000000001000000 3
19
b0000000000000100 B
b00000000000000000000000001111110 C
b00000000000000000000000001111101 D
1F
1J
#1255
0J
#1258
#1260
b0010 .
b1000111111000010 /
00
15
09
1:
1>
b0000000000000000 B
b00000000000000000000000001111111 C
b00000000000000000000000001111110 D
0E
1G
0H
1J
#1265
0J
#1268
#1270
b0111 2
b00000000000000000000000000000000 3
05
0:
0>
b00000000000000000000000010000000 C
b00000000000000000000000001111111 D
1E
0G
1J
#1275
0J
#1278
#1280
0&
10
01
b00000000000000000000000010000001 C
b00000000000000000000000010000000 D
0E
1J
#1285
0J
#1288
#1290
1&
11
b0010 2
19
b0000000100000000 B
b00000000000000000000000010000010 C
b00000000000000000000000010000001 D
1E
1J
#1295
0J
#1298
#1300
b0110 .
b0011101111010100 /
15
1:
1>
b0000000000001000 B
b00000000000000000000000010000011 C
b00000000000000000000000010000010 D
1G
1J
#1305
0J
#1308
#1310
1%
b1111 +
b11 ,
b0100 .
b0000000110011111 /
00
b0110 2
16
09
b0100000000000000 A
b0000000000000000 B
b00000000000000000000000010000100 C
b00000000000000000000000010000011 D
0E
1J
#1315
0J
#1318
#1320
b0011 #
b1101000011001011 $
0%
b00011110001101111011111110110011 '
b0111 (
1*
b0101 2
b00 4
05
06
0:
0>
b0000000000000000 A
b00000000000000000000000010000101 C
b00000000000000000000000010000100 D
1E
1I
1J
#1325
0J
#1328
#1330
1-
18
1;
b00000000000000000000000010000110 C
b00000000000000000000000010000101 D
0I
1J
#1335
0J
#1338
#1340
b0001 +
b00 ,
0-
01
08
0;
b00000000000000000000000010000111 C
b00000000000000000000000010000110 D
0F
0G
1J
#1345
0J
#1348
#1350
1%
b0011 +
b11 ,
10
11
b0100 2
b00000000000000000000000100000000 3
16
19
b0010000000000000 A
b0000000000000001 B
b00000000000000000000000010001000 C
b00000000000000000000000010000111 D
1F
1J
#1355
0J
#1358
#1360
b0001 #
b1011111011010111 $
0%
1)
1-
b0111 .
b0001100111110101 /
00
15
06
17
18
09
1:
1;
1@
b0000000000000000 A
b0000000000000000 B
b00000000000000000000000010001001 C
b00000000000000000000000010001000 D
1G
1J
#1365
0J
#1368
#1370
b11100100101110111000110001100110 '
b1000 (
0)
b1010 +
0-
01
b1110 2
b00000000000000000000000000000000 3
b11 4
05
07
08
0:
0;
0@
b00000000000000000000000010001010 C
b00000000000000000000000010001001 D
0E
0G
1J
#1375
0J
#1378
#1380
1%
b0001 +
16
b0000100000000000 A
b00000000000000000000000010001011 C
b00000000000000000000000010001010 D
1E
1J
#1385
0J
#1388
#1390
b1101 #
b1001010111110111 $
0%
1-
10
11
b0111 2
06
18
19
1;
b0000000000000000 A
b0000000000000010 B
b00000000000000000000000010001100 C
b00000000000000000000000010001011 D
1G
1J
#1395
0J
#1398
#1400
1%
b1101 +
0-
b1001 .
b1110111110000111 /
00
16
08
09
0;
b0000001000000000 A
b0000000000000000 B
b00000000000000000000000010001101 C
b00000000000000000000000010001100 D
1I
1J
#1405
0J
#1408
#1410
b0010 #
b1001110111011101 $
01
15
1:
1>
b00000000000000000000000010001110 C
b00000000000000000000000010001101 D
1J
#1415
0J
#1418
#1420
b0111 #
b1111111111000001 $
0%
1)
1-
11
b0000 2
05
06
17
18
0:
1;
0>
b0000000000000000 A
b00000000000000000000000010001111 C
b00000000000000000000000010001110 D
0I
1J
#1425
0J
#1428
#1430
b00000000110101011110111100011001 '
b0111 (
b0010 +
b00000000000000000000000010010000 C
b00000000000000000000000010001111 D
0E
0F
1J
#1435
0J
#1438
#1440
b11011011110001011000111001010101 '
b1001 (
0)
07
b00000000000000000000000010010001 C
b00000000000000000000000010010000 D
1E
1F
1J
#1445
0J
#1448
#1450
b1001 +
0-
08
0;
b00000000000000000000000010010010 C
b00000000000000000000000010010001 D
0G
1J
#1455
0J
#1458
#1460
b00000000000000000000000010010011 C
b00000000000000000000000010010010 D
1J
#1465
0J
#1468
#1470
1%
b0111 +
16
b1000000000000000 A
b00000000000000000000000010010100 C
b00000000000000000000000010010011 D
1J
#1475
0J
#1478
#1480
b0011 #
b1010011000101000 $
0%
1-
10
b1001 2
06
18
19
1;
b0000000000000000 A
b0100000000000000 B
b00000000000000000000000010010101 C
b00000000000000000000000010010100 D
0E
1G
1J
#1485
0J
#1488
#1490
1)
b0100 .
b1011101100011011 /
00
15
17
09
1:
1>
b0000000000000000 B
b00000000000000000000000010010110 C
b00000000000000000000000010010101 D
1E
1I
1J
#1495
0J
#1498
#1500
b11110111110110000010001011110000 '
b1010 (
0)
b1010 +
0-
b1110 2
05
07
08
0:
0;
0>
b00000000000000000000000010010111 C
b00000000000000000000000010010110 D
0G
0I
1J
#1505
0J
#1508
#1510
b00000000000000000000000010011000 C
b00000000000000000000000010010111 D
1J
#1515
0J
#1518
#1520
b00000000000000000000000010011001 C
b00000000000000000000000010011000 D
1J
#1525
0J
#1528
#1530
1%
b0011 +
16
b0000010000000000 A
b00000000000000000000000010011010 C
b00000000000000000000000010011001 D
1H
1J
#1535
0J
#1538
#1540
b1001 #
b0111000001011001 $
0%
1)
1-
01
06
17
18
1;
b0000000000000000 A
b00000000000000000000000010011011 C
b00000000000000000000000010011010 D
1G
0H
1J
#1545
0J
#1548
#1550
b11111010111000111110000001111000 '
b1000 (
0)
b1111 +
0-
11
07
08
0;
b00000000000000000000000010011100 C
b00000000000000000000000010011011 D
0G
1J
#1555
0J
#1558
#1560
10
b0100 2
19
b0000100000000000 B
b00000000000000000000000010011101 C
b00000000000000000000000010011100 D
0F
1J
#1565
0J
#1568
#1570
b0010 .
b0010100110011000 /
00
15
09
1:
1>
b0000000000000000 B
b00000000000000000000000010011110 C
b00000000000000000000000010011101 D
0E
1F
1G
1J
#1575
0J
#1578
#1580
b0011 2
05
0:
0>
b00000000000000000000000010011111 C
b00000000000000000000000010011110 D
1E
0G
1J
#1585
0J
#1588
#1590
b00000000000000000000000010100000 C
b00000000000000000000000010011111 D
1J
#1595
0J
#1598
#1600
b00000000000000000000000010100001 C
b00000000000000000000000010100000 D
1J
#1605
0J
#1608
#1610
10
b0010 2
19
b0000000000000100 B
b00000000000000000000000010100010 C
b00000000000000000000000010100001 D
1H
1J
#1615
0J
#1618
#1620
1%
b1001 +
b0101 .
b0101011111111110 /
00
15
16
09
b0000000010000000 A
b0000000000000000 B
b00000000000000000000000010100011 C
b00000000000000000000000010100010 D
0F
1G
0H
1J
#1625
0J
#1628
#1630
b0111 #
b1111110100001010 $
0%
1-
01
06
18
1;
b0000000000000000 A
b00000000000000000000000010100100 C
b00000000000000000000000010100011 D
1I
1J
#1635
0J
#1638
#1640
1)
b1111 +
0-
10
11
17
08
19
1:
0;
1>
b0000000000100000 B
b00000000000000000000000010100101 C
b00000000000000000000000010100100 D
0E
1F
0I
1J
#1645
0J
#1648
#1650
b00010011000100000101011010000101 '
b1100 (
b0010110011100001 /
00
b0101 2
09
b0000000000000000 B
b00000000000000000000000010100110 C
b00000000000000000000000010100101 D
1J
#1655
0J
#1658
#1660
b01011001110011100001111010110110 '
b0101 (
0)
0*
10
05
07
19
0:
0>
b0000000000000100 B
b00000000000000000000000010100111 C
b00000000000000000000000010100110 D
1E
0G
1J
#1665
0J
#1668
#1670
1%
1*
b0111 +
b0111 .
b1000100010010101 /
00
15
16
09
1:
1>
b1000000000000000 A
b0000000000000000 B
b00000000000000000000000010101000 C
b00000000000000000000000010100111 D
1G
1J
#1675
0J
#1678
#1680
b0001 #
b1000000111110100 $
0%
1-
b0110 2
05
06
18
0:
1;
0>
b0000000000000000 A
b00000000000000000000000010101001 C
b00000000000000000000000010101000 D
1J
#1685
0J
#1688
#1690
b0011 +
0-
01
08
0;
b00000000000000000000000010101010 C
b00000000000000000000000010101001 D
0E
0G
1J
#1695
0J
#1698
#1700
11
b00000000000000000000000010101011 C
b00000000000000000000000010101010 D
1E
1J
#1705
0J
#1708
#1710
b00000000000000000000000010101100 C
b00000000000000000000000010101011 D
1J
#1715
0J
#1718
