dmppl/experiments/eva/tst/tinn.vcd
$comment UltraSoC Taygete ZC706 platform running Tinn $end
$date Thu Feb 14 18:20:28 2019 $end
$timescale 1us $end
$scope module tinn $end
$var wire 1 ! scpu.fprop $end
$var wire 1 " scpu.xttrain $end
$var wire 1 # scpu.toterr $end
$var wire 1 $ scpu.bprop $end
$var wire 1 % scpu.draw_char $end
$var wire 1 & acpu.get_addr $end
$var wire 1 ' acpu.draw_char $end
$var wire 1 ( scpu.set_addr $end
$var wire 1 ) scpu.get_addr $end
$var wire 1 * acpu.set_addr $end
$var wire 1 + acpu.draw_string $end
$var wire 1 , scpu.wait_until $end
$var wire 1 - scpu.wait_while $end
$var wire 1 . acpu.prepare_batch $end
$var wire 1 / acpu.draw_semeion_digit $end
$var wire 1 0 acpu.wait_while $end
$var wire 1 1 acpu.report $end
$var wire 1 2 acpu.wait_until $end
$var wire 1 3 scpu.infer $end
$var wire 1 4 scpu.xtpredict $end
$var wire 1 5 acpu.draw_infer_result $end
$var wire 1 6 scpu.draw_tinn $end
$var wire 1 7 scpu.train $end
$var wire 1 8 scpu.draw_string $end
$upscope $end
$enddefinitions $end
#20748067
b0 !
b0 "
b0 #
b0 $
b0 %
b0 '
b0 (
b0 )
b0 *
b0 +
b0 ,
b0 -
b0 .
b0 /
b0 0
b0 1
b0 2
b0 3
b0 4
b0 5
b0 6
b0 7
b0 8
#20748067
b1 &
#20748072
b0 &
#20762128
b1 &
#20762133
b0 &
#20776190
b1 &
#20776195
b0 &
#20790250
b1 &
#20790256
b0 &
#20804313
b1 &
#20804319
b0 &
#20818376
b1 &
#20818380
b0 &
#20832436
b1 &
#20832442
b0 &
#20846498
b1 &
#20846503
b0 &
#20860559
b1 &
#20860564
b0 &
#20864062
b0 6
#20864888
b0 7
#20864892
b1 ,
#20864893
b1 )
#20864921
b0 )
#20864922
b0 ,
#20864925
b1 (
#20864934
b0 (
#20864936
b1 (
#20864945
b0 (
#20864947
b1 (
#20864956
b0 (
#20864958
b1 -
#20864959
b1 )
#20864967
b0 )
#20864969
b0 -
#20864972
b1 (
#20864981
b0 (
#20864984
b1 7
#20865005
b1 "
#20865008
b1 !
#20865693
b0 !
#20865695
b1 $
#20866749
b0 $
#20866750
b1 #
#20866752
b0 #
#20866753
b0 "
#20866779
b1 "
#20866779
b1 !
#20867524
b0 !
#20867525
b1 $
#20868598
b0 $
#20868598
b1 #
#20868600
b0 #
#20868600
b0 "
#20868626
b1 "
#20868627
b1 !
#20869371
b0 !
#20869371
b1 $
#20870417
b0 $
#20870417
b1 #
#20870419
b0 #
#20870419
b0 "
#20870445
b1 "
#20870446
b1 !
#20871180
b0 !
#20871181
b1 $
#20872239
b0 $
#20872240
b1 #
#20872242
b0 #
#20872242
b0 "
#20872268
b1 "
#20872269
b1 !
#20873007
b0 !
#20873007
b1 $
#20874072
b0 $
#20874073
b1 #
#20874074
b0 #
#20874075
b0 "
#20874101
b1 "
#20874103
b1 !
#20874620
b1 &
#20874626
b0 &
#20874627
b0 0
#20874652
b1 *
#20874661
b0 *
#20874663
b1 1
#20874789
b0 1
#20874790
b1 *
#20874805
b0 *
#20874855
b0 !
#20874856
b1 $
#20876003
b0 $
#20876004
b1 #
#20876006
b0 #
#20876006
b0 "
#20876036
b1 "
#20876036
b1 !
#20876807
b0 !
#20876808
b1 $
#20877373
b1 +
#20877374
b1 '
#20877751
b0 '
#20877754
b1 '
#20877974
b0 $
#20877974
b1 #
#20877976
b0 #
#20877977
b0 "
#20878008
b1 "
#20878009
b1 !
#20878293
b0 '
#20878296
b1 '
#20878769
b0 '
#20878772
b1 '
#20878791
b0 !
#20878793
b1 $
#20879084
b0 '
#20879087
b1 '
#20879665
b0 '
#20879668
b1 '
#20879968
b0 $
#20879970
b1 #
#20879972
b0 #
#20879972
b0 "
#20879981
b0 '
#20879984
b1 '
#20880004
b1 "
#20880006
b1 !
#20880550
b0 '
#20880553
b1 '
#20880780
b0 !
#20880781
b1 $
#20880997
b0 '
#20880998
b0 +
#20881002
b1 +
#20881004
b1 '
#20881435
b0 '
#20881438
b1 '
#20881780
b0 '
#20881783
b1 '
#20881975
b0 $
#20881977
b1 #
#20881979
b0 #
#20881979
b0 "
#20882010
b1 "
#20882010
b1 !
#20882079
b0 '
#20882082
b1 '
#20882384
b0 '
#20882387
b1 '
#20882792
b0 !
#20882793
b1 $
#20882842
b0 '
#20882845
b1 '
#20883191
b0 '
#20883194
b1 '
#20883502
b0 '
#20883505
b1 '
#20883651
b0 '
#20883653
b0 +
#20883697
b1 +
#20883699
b1 '
#20883975
b0 $
#20883976
b1 #
#20883978
b0 #
#20883978
b0 "
#20884011
b1 "
#20884012
b1 !
#20884036
b0 '
#20884040
b1 '
#20884636
b0 '
#20884637
b0 +
#20884641
b1 +
#20884642
b1 '
#20884788
b0 !
#20884789
b1 $
#20884901
b0 '
#20884904
b1 '
#20885199
b0 '
#20885202
b1 '
#20885544
b0 '
#20885547
b1 '
#20885982
b0 $
#20885983
b1 #
#20885985
b0 #
#20885986
b0 "
#20886009
b0 '
#20886012
b1 '
#20886017
b1 "
#20886018
b1 !
#20886316
b0 '
#20886319
b1 '
#20886460
b0 '
#20886462
b0 +
#20886507
b1 +
#20886509
b1 '
#20886802
b0 !
#20886803
b1 $
#20886837
b0 '
#20886840
b1 '
#20887448
b0 '
#20887452
b1 '
#20887989
b0 $
#20887990
b1 #
#20887992
b0 #
#20887993
b0 "
#20888023
b1 "
#20888024
b1 !
#20888057
b0 '
#20888060
b1 '
#20888657
b0 '
#20888659
b0 +
#20888663
b1 .
#20888802
b0 !
#20888804
b1 $
#20889999
b0 $
#20889999
b1 #
#20890002
b0 #
#20890002
b0 "
#20890033
b1 "
#20890034
b1 !
#20890811
b0 !
#20890812
b1 $
#20891885
b0 .
#20891887
b1 2
#20891889
b1 &
#20891916
b0 &
#20891918
b0 2
#20891922
b1 *
#20891928
b0 *
#20891933
b1 /
#20891996
b0 $
#20891997
b1 #
#20891999
b0 #
#20891999
b0 "
#20892028
b1 "
#20892030
b1 !
#20892799
b0 !
#20892800
b1 $
#20893976
b0 $
#20893978
b1 #
#20893979
b0 #
#20893979
b0 "
#20894011
b1 "
#20894012
b1 !
#20894772
b0 !
#20894774
b1 $
#20895971
b0 $
#20895972
b1 #
#20895974
b0 #
#20895974
b0 "
#20896005
b1 "
#20896005
b1 !
#20896776
b0 !
#20896776
b1 $
#20897946
b0 $
#20897946
b1 #
#20897948
b0 #
#20897948
b0 "
#20897978
b1 "
#20897978
b1 !
#20898750
b0 !
#20898751
b1 $
#20899349
b0 /
#20899351
b1 0
#20899353
b1 &
#20899358
b0 &
#20899872
b0 $
#20899873
b1 #
#20899874
b0 #
#20899874
b0 "
#20899899
b1 "
#20899900
b1 !
#20900628
b0 !
#20900629
b1 $
#20901693
b0 $
#20901694
b1 #
#20901696
b0 #
#20901696
b0 "
#20901722
b1 "
#20901723
b1 !
#20902456
b0 !
#20902457
b1 $
#20903520
b0 $
#20903520
b1 #
#20903521
b0 #
#20903521
b0 "
#20903548
b1 "
#20903548
b1 !
#20904278
b0 !
#20904279
b1 $
#20905341
b0 $
#20905342
b1 #
#20905344
b0 #
#20905344
b0 "
#20905372
b1 "
#20905373
b1 !
#20906116
b0 !
#20906118
b1 $
#20907176
b0 $
#20907177
b1 #
#20907178
b0 #
#20907178
b0 "
#20907204
b1 "
#20907204
b1 !
#20907950
b0 !
#20907951
b1 $
#20909024
b0 $
#20909025
b1 #
#20909027
b0 #
#20909027
b0 "
#20909054
b1 "
#20909054
b1 !
#20909787
b0 !
#20909788
b1 $
#20910839
b0 $
#20910840
b1 #
#20910842
b0 #
#20910842
b0 "
#20910869
b1 "
#20910870
b1 !
#20911605
b0 !
#20911605
b1 $
#20912661
b0 $
#20912662
b1 #
#20912664
b0 #
#20912664
b0 "
#20912691
b1 "
#20912693
b1 !
#20913414
b1 &
#20913419
b0 &
#20913436
b0 !
#20913437
b1 $
#20914488
b0 $
#20914489
b1 #
#20914491
b0 #
#20914492
b0 "
#20914518
b1 "
#20914519
b1 !
#20915254
b0 !
#20915255
b1 $
#20916317
b0 $
#20916318
b1 #
#20916320
b0 #
#20916320
b0 "
#20916346
b1 "
#20916347
b1 !
#20917080
b0 !
#20917081
b1 $
#20918141
b0 $
#20918142
b1 #
#20918144
b0 #
#20918144
b0 "
#20918169
b1 "
#20918170
b1 !
#20918908
b0 !
#20918909
b1 $
#20919976
b0 $
#20919977
b1 #
#20919979
b0 #
#20919979
b0 "
#20920007
b1 "
#20920007
b1 !
#20920740
b0 !
#20920741
b1 $
#20921804
b0 $
#20921804
b1 #
#20921806
b0 #
#20921807
b0 "
#20921831
b1 "
#20921831
b1 !
#20922569
b0 !
#20922570
b1 $
#20923636
b0 $
#20923637
b1 #
#20923639
b0 #
#20923639
b0 "
#20923666
b1 "
#20923667
b1 !
#20924402
b0 !
#20924403
b1 $
#20925454
b0 $
#20925455
b1 #
#20925457
b0 #
#20925457
b0 "
#20925483
b1 "
#20925484
b1 !
#20926227
b0 !
#20926228
b1 $
#20927281
b0 $
#20927283
b1 #
#20927284
b0 #
#20927285
b0 "
#20927310
b1 "
#20927311
b1 !
#20927476
b1 &
#20927481
b0 &
#20928036
b0 !
#20928037
b1 $
#20929101
b0 $
#20929102
b1 #
#20929104
b0 #
#20929104
b0 "
#20929130
b1 "
#20929131
b1 !
#20929871
b0 !
#20929872
b1 $
#20930928
b0 $
#20930929
b1 #
#20930931
b0 #
#20930931
b0 "
#20930956
b1 "
#20930957
b1 !
#20931693
b0 !
#20931694
b1 $
#20932755
b0 $
#20932756
b1 #
#20932758
b0 #
#20932758
b0 "
#20932783
b1 "
#20932783
b1 !
#20933518
b0 !
#20933519
b1 $
#20934587
b0 $
#20934588
b1 #
#20934590
b0 #
#20934590
b0 "
#20934617
b1 "
#20934618
b1 !
#20935358
b0 !
#20935359
b1 $
#20936415
b0 $
#20936416
b1 #
#20936418
b0 #
#20936418
b0 "
#20936443
b1 "
#20936444
b1 !
#20937176
b0 !
#20937177
b1 $
#20938239
b0 $
#20938240
b1 #
#20938241
b0 #
#20938241
b0 "
#20938269
b1 "
#20938269
b1 !
#20939003
b0 !
#20939004
b1 $
#20940067
b0 $
#20940068
b1 #
#20940069
b0 #
#20940070
b0 "
#20940097
b1 "
#20940099
b1 !
#20940835
b0 !
#20940836
b1 $
#20941537
b1 &
#20941543
b0 &
#20941894
b0 $
#20941894
b1 #
#20941896
b0 #
#20941896
b0 "
#20941926
b1 "
#20941926
b1 !
#20942664
b0 !
#20942665
b1 $
#20943708
b0 $
#20943709
b1 #
#20943710
b0 #
#20943710
b0 "
#20943737
b1 "
#20943738
b1 !
#20944473
b0 !
#20944474
b1 $
#20945544
b0 $
#20945545
b1 #
#20945547
b0 #
#20945547
b0 "
#20945573
b1 "
#20945574
b1 !
#20946309
b0 !
#20946310
b1 $
#20947374
b0 $
#20947375
b1 #
#20947377
b0 #
#20947377
b0 "
#20947403
b1 "
#20947404
b1 !
#20948136
b0 !
#20948136
b1 $
#20949196
b0 $
#20949197
b1 #
#20949199
b0 #
#20949199
b0 "
#20949225
b1 "
#20949225
b1 !
#20949953
b0 !
#20949954
b1 $
#20951015
b0 $
#20951016
b1 #
#20951018
b0 #
#20951018
b0 "
#20951044
b1 "
#20951045
b1 !
#20951786
b0 !
#20951787
b1 $
#20952846
b0 $
#20952847
b1 #
#20952849
b0 #
#20952849
b0 "
#20952875
b1 "
#20952876
b1 !
#20953621
b0 !
#20953622
b1 $
#20954685
b0 $
#20954686
b1 #
#20954687
b0 #
#20954688
b0 "
#20954716
b1 "
#20954718
b1 !
#20955464
b0 !
#20955465
b1 $
#20955599
b1 &
#20955604
b0 &
#20956528
b0 $
#20956529
b1 #
#20956530
b0 #
#20956530
b0 "
#20956556
b1 "
#20956557
b1 !
#20957298
b0 !
#20957299
b1 $
#20958356
b0 $
#20958356
b1 #
#20958358
b0 #
#20958358
b0 "
#20958385
b1 "
#20958386
b1 !
#20959125
b0 !
#20959126
b1 $
#20960175
b0 $
#20960175
b1 #
#20960177
b0 #
#20960177
b0 "
#20960203
b1 "
#20960204
b1 !
#20960938
b0 !
#20960939
b1 $
#20962004
b0 $
#20962005
b1 #
#20962006
b0 #
#20962006
b0 "
#20962032
b1 "
#20962032
b1 !
#20962777
b0 !
#20962778
b1 $
#20963849
b0 $
#20963850
b1 #
#20963852
b0 #
#20963852
b0 "
#20963877
b1 "
#20963878
b1 !
#20964606
b0 !
#20964606
b1 $
#20965650
b0 $
#20965651
b1 #
#20965653
b0 #
#20965653
b0 "
#20965679
b1 "
#20965680
b1 !
#20966423
b0 !
#20966424
b1 $
#20967483
b0 $
#20967484
b1 #
#20967486
b0 #
#20967486
b0 "
#20967511
b1 "
#20967512
b1 !
#20968254
b0 !
#20968255
b1 $
#20969306
b0 $
#20969306
b1 #
#20969308
b0 #
#20969308
b0 "
#20969335
b1 "
#20969336
b1 !
#20969660
b1 &
#20969666
b0 &
#20970077
b0 !
#20970078
b1 $
#20971125
b0 $
#20971126
b1 #
#20971128
b0 #
#20971128
b0 "
#20971153
b1 "
#20971154
b1 !
#20971888
b0 !
#20971889
b1 $
#20972950
b0 $
#20972951
b1 #
#20972953
b0 #
#20972953
b0 "
#20972980
b1 "
#20972981
b1 !
#20973723
b0 !
#20973724
b1 $
#20974794
b0 $
#20974795
b1 #
#20974797
b0 #
#20974797
b0 "
#20974822
b1 "
#20974823
b1 !
#20975559
b0 !
#20975560
b1 $
#20976621
b0 $
#20976622
b1 #
#20976623
b0 #
#20976623
b0 "
#20976650
b1 "
#20976650
b1 !
#20977396
b0 !
#20977397
b1 $
#20978454
b0 $
#20978455
b1 #
#20978457
b0 #
#20978458
b0 "
#20978484
b1 "
#20978485
b1 !
#20979207
b0 !
#20979208
b1 $
#20980268
b0 $
#20980269
b1 #
#20980271
b0 #
#20980271
b0 "
#20980297
b1 "
#20980298
b1 !
#20981031
b0 !
#20981032
b1 $
#20982093
b0 $
#20982093
b1 #
#20982095
b0 #
#20982095
b0 "
#20982122
b1 "
#20982122
b1 !
#20982863
b0 !
#20982864
b1 $
#20983722
b1 &
#20983727
b0 &
#20983923
b0 $
#20983925
b1 #
#20983926
b0 #
#20983927
b0 "
#20983953
b1 "
#20983955
b1 !
#20984688
b0 !
#20984689
b1 $
#20985756
b0 $
#20985757
b1 #
#20985759
b0 #
#20985759
b0 "
#20985784
b1 "
#20985785
b1 !
#20986528
b0 !
#20986529
b1 $
#20987570
b0 $
#20987571
b1 #
#20987573
b0 #
#20987573
b0 "
#20987599
b1 "
#20987601
b1 !
#20988337
b0 !
#20988339
b1 $
#20989395
b0 $
#20989396
b1 #
#20989398
b0 #
#20989398
b0 "
#20989424
b1 "
#20989425
b1 !
#20990162
b0 !
#20990163
b1 $
#20991226
b0 $
#20991227
b1 #
#20991228
b0 #
#20991228
b0 "
#20991258
b1 "
#20991258
b1 !
#20991994
b0 !
#20991994
b1 $
#20993044
b0 $
#20993045
b1 #
#20993047
b0 #
#20993047
b0 "
#20993073
b1 "
#20993075
b1 !
#20993801
b0 !
#20993801
b1 $
#20994854
b0 $
#20994855
b1 #
#20994857
b0 #
#20994857
b0 "
#20994880
b1 "
#20994881
b1 !
#20995623
b0 !
#20995625
b1 $
#20996681
b0 $
#20996681
b1 #
#20996683
b0 #
#20996683
b0 "
#20996710
b1 "
#20996711
b1 !
#20997461
b0 !
#20997462
b1 $
#20997783
b1 &
#20997789
b0 &
#20998526
b0 $
#20998527
b1 #
#20998529
b0 #
#20998530
b0 "
#20998555
b1 "
#20998556
b1 !
#20999300
b0 !
#20999301
b1 $
#21000374
b0 $
#21000375
b1 #
#21000377
b0 #
#21000377
b0 "
#21000403
b1 "
#21000404
b1 !
#21001150
b0 !
#21001151
b1 $
#21002205
b0 $
#21002206
b1 #
#21002208
b0 #
#21002208
b0 "
#21002234
b1 "
#21002234
b1 !
#21002981
b0 !
#21002982
b1 $
#21004034
b0 $
#21004036
b1 #
#21004037
b0 #
#21004037
b0 "
#21004063
b1 "
#21004065
b1 !
#21004801
b0 !
#21004802
b1 $
#21005865
b0 $
#21005866
b1 #
#21005868
b0 #
#21005869
b0 "
#21005894
b1 "
#21005895
b1 !
#21006627
b0 !
#21006627
b1 $
#21007684
b0 $
#21007685
b1 #
#21007686
b0 #
#21007686
b0 "
#21007713
b1 "
#21007714
b1 !
#21008454
b0 !
#21008455
b1 $
#21009522
b0 $
#21009523
b1 #
#21009525
b0 #
#21009525
b0 "
#21009549
b1 "
#21009550
b1 !
#21010289
b0 !
#21010290
b1 $
#21011349
b0 $
#21011350
b1 #
#21011352
b0 #
#21011352
b0 "
#21011379
b1 "
#21011380
b1 !
#21011845
b1 &
#21011850
b0 &
#21012116
b0 !
#21012117
b1 $
#21013182
b0 $
#21013183
b1 #
#21013185
b0 #
#21013185
b0 "
#21013211
b1 "
#21013212
b1 !
#21013950
b0 !
#21013951
b1 $
#21015019
b0 $
#21015020
b1 #
#21015022
b0 #
#21015022
b0 "
#21015048
b1 "
#21015049
b1 !
#21015770
b0 !
#21015771
b1 $
#21016825
b0 $
#21016826
b1 #
#21016828
b0 #
#21016828
b0 "
#21016855
b1 "
#21016856
b1 !
#21017592
b0 !
#21017593
b1 $
#21018648
b0 $
#21018649
b1 #
#21018650
b0 #
#21018651
b0 "
#21018676
b1 "
#21018677
b1 !
#21019417
b0 !
#21019418
b1 $
#21020471
b0 $
#21020472
b1 #
#21020474
b0 #
#21020474
b0 "
#21020500
b1 "
#21020501
b1 !
#21021239
b0 !
#21021240
b1 $
#21022304
b0 $
#21022305
b1 #
#21022306
b0 #
#21022306
b0 "
#21022333
b1 "
#21022334
b1 !
#21023064
b0 !
#21023065
b1 $
#21024128
b0 $
#21024129
b1 #
#21024131
b0 #
#21024131
b0 "
#21024157
b1 "
#21024158
b1 !
#21024908
b0 !
#21024909
b1 $
#21025906
b1 &
#21025912
b0 &
#21025969
b0 $
#21025970
b1 #
#21025972
b0 #
#21025972
b0 "
#21026000
b1 "
#21026001
b1 !
#21026737
b0 !
#21026739
b1 $
#21027798
b0 $
#21027799
b1 #
#21027801
b0 #
#21027801
b0 "
#21027827
b1 "
#21027828
b1 !
#21028561
b0 !
#21028561
b1 $
#21029618
b0 $
#21029620
b1 #
#21029621
b0 #
#21029622
b0 "
#21029647
b1 "
#21029648
b1 !
#21030373
b0 !
#21030373
b1 $
#21031439
b0 $
#21031440
b1 #
#21031442
b0 #
#21031442
b0 "
#21031469
b1 "
#21031470
b1 !
#21032219
b0 !
#21032220
b1 $
#21033274
b0 $
#21033275
b1 #
#21033277
b0 #
#21033277
b0 "
#21033304
b1 "
#21033305
b1 !
#21034046
b0 !
#21034047
b1 $
#21035108
b0 $
#21035109
b1 #
#21035110
b0 #
#21035110
b0 "
#21035136
b1 "
#21035137
b1 !
#21035870
b0 !
#21035870
b1 $
#21036925
b0 $
#21036926
b1 #
#21036928
b0 #
#21036928
b0 "
#21036953
b1 "
#21036954
b1 !
#21037694
b0 !
#21037695
b1 $
#21038760
b0 $
#21038761
b1 #
#21038763
b0 #
#21038763
b0 "
#21038790
b1 "
#21038791
b1 !
#21039522
b0 !
#21039522
b1 $
#21039968
b1 &
#21039974
b0 &
#21040588
b0 $
#21040589
b1 #
#21040591
b0 #
#21040591
b0 "
#21040618
b1 "
#21040619
b1 !
#21041348
b0 !
#21041348
b1 $
#21042404
b0 $
#21042405
b1 #
#21042407
b0 #
#21042407
b0 "
#21042433
b1 "
#21042434
b1 !
#21043167
b0 !
#21043168
b1 $
#21044238
b0 $
#21044238
b1 #
#21044240
b0 #
#21044240
b0 "
#21044265
b1 "
#21044266
b1 !
#21045008
b0 !
#21045009
b1 $
#21046076
b0 $
#21046077
b1 #
#21046079
b0 #
#21046079
b0 "
#21046107
b1 "
#21046108
b1 !
#21046845
b0 !
#21046846
b1 $
#21047915
b0 $
#21047915
b1 #
#21047917
b0 #
#21047917
b0 "
#21047943
b1 "
#21047944
b1 !
#21048677
b0 !
#21048678
b1 $
#21049741
b0 $
#21049741
b1 #
#21049743
b0 #
#21049744
b0 "
#21052068
b1 8
#21052070
b1 %
#21052515
b0 %
#21052519
b1 %
#21052943
b0 %
#21052946
b1 %
#21053307
b0 %
#21053310
b1 %
#21053734
b0 %
#21053737
b1 %
#21053994
b0 %
#21053997
b1 %
#21054030
b1 &
#21054035
b0 &
#21054757
b0 %
#21054760
b1 %
#21054849
b0 %
#21054852
b1 %
#21055360
b0 %
#21055363
b1 %
#21056122
b0 %
#21056125
b1 %
#21056717
b0 %
#21056720
b1 %
#21057207
b0 %
#21057210
b1 %
#21057801
b0 %
#21057804
b1 %
#21058333
b0 %
#21058336
b1 %
#21058340
b0 %
#21058341
b1 %
#21058765
b0 %
#21058768
b1 %
#21059192
b0 %
#21059195
b1 %
#21059619
b0 %
#21059622
b1 %
#21060046
b0 %
#21060049
b1 %
#21060473
b0 %
#21060476
b1 %
#21060732
b0 %
#21060736
b1 %
#21061139
b0 %
#21061142
b1 %
#21061628
b0 %
#21061631
b1 %
#21061720
b0 %
#21061723
b1 %
#21062253
b0 %
#21062256
b1 %
#21062847
b0 %
#21062850
b1 %
#21063337
b0 %
#21063340
b1 %
#21063868
b0 %
#21063871
b1 %
#21064295
b0 %
#21064298
b1 %
#21064827
b0 %
#21064830
b1 %
#21065254
b0 %
#21065257
b1 %
#21065261
b0 %
#21065262
b1 %
#21065644
b0 %
#21065647
b1 %
#21066092
b0 %
#21066095
b1 %
#21066666
b0 %
#21066669
b1 %
#21066841
b0 %
#21066845
b1 %
#21067164
b0 %
#21067167
b1 %
#21067528
b0 %
#21067531
b1 %
#21067955
b0 %
#21067959
b1 %
#21068091
b1 &
#21068096
b0 &
#21068530
b0 %
#21068534
b1 %
#21068915
b0 %
#21068918
b1 %
#21069175
b0 %
#21069178
b1 %
#21069581
b0 %
#21069585
b1 %
#21069988
b0 %
#21069991
b1 %
#21070749
b0 %
#21070752
b1 %
#21071510
b0 %
#21071512
b0 8
#21071515
b1 6
#21082153
b1 &
#21082158
b0 &
#21096214
b1 &
#21096219
b0 &
#21110276
b1 &
#21110282
b0 &
#21124338
b1 &
#21124344
b0 &
#21138399
b1 &
#21138405
b0 &
#21152462
b1 &
#21152468
b0 &
#21166524
b1 &
#21166529
b0 &
#21180585
b1 &
#21180591
b0 &
#21194647
b1 &
#21194653
b0 &
#21208709
b1 &
#21208714
b0 &
#21222771
b1 &
#21222777
b0 &
#21236833
b1 &
#21236838
b0 &
#21250894
b1 &
#21250900
b0 &
#21264956
b1 &
#21264961
b0 &
#21279016
b1 &
#21279022
b0 &
#21293079
b1 &
#21293084
b0 &
#21307140
b1 &
#21307145
b0 &
#21321201
b1 &
#21321206
b0 &
#21326567
b0 6
#21327433
b0 7
#21327437
b1 ,
#21327438
b1 )
#21327465
b0 )
#21327467
b0 ,
#21327470
b1 (
#21327479
b0 (
#21327481
b1 (
#21327490
b0 (
#21327492
b1 (
#21327501
b0 (
#21327503
b1 -
#21327504
b1 )
#21327512
b0 )
#21327514
b0 -
#21327516
b1 (
#21327526
b0 (
#21327530
b1 7
#21327550
b1 "
#21327553
b1 !
#21328239
b0 !
#21328241
b1 $
#21329303
b0 $
#21329304
b1 #
#21329306
b0 #
#21329307
b0 "
#21329333
b1 "
#21329334
b1 !
#21330074
b0 !
#21330074
b1 $
#21331137
b0 $
#21331138
b1 #
#21331140
b0 #
#21331140
b0 "
#21331166
b1 "
#21331167
b1 !
#21331891
b0 !
#21331892
b1 $
#21332956
b0 $
#21332957
b1 #
#21332959
b0 #
#21332959
b0 "
#21332984
b1 "
#21332985
b1 !
#21333726
b0 !
#21333727
b1 $
#21334787
b0 $
#21334788
b1 #
#21334790
b0 #
#21334790
b0 "
#21334816
b1 "
#21334816
b1 !
#21335263
b1 &
#21335268
b0 &
#21335270
b0 0
#21335294
b1 *
#21335302
b0 *
#21335305
b1 1
#21335437
b0 1
#21335439
b1 *
#21335455
b0 *
#21335555
b0 !
#21335556
b1 $
#21336710
b0 $
#21336710
b1 #
#21336712
b0 #
#21336712
b0 "
#21336741
b1 "
#21336742
b1 !
#21337514
b0 !
#21337515
b1 $
#21338022
b1 +
#21338024
b1 '
#21338400
b0 '
#21338403
b1 '
#21338673
b0 $
#21338674
b1 #
#21338676
b0 #
#21338676
b0 "
#21338708
b1 "
#21338710
b1 !
#21338943
b0 '
#21338945
b1 '
#21339415
b0 '
#21339418
b1 '
#21339485
b0 !
#21339486
b1 $
#21339731
b0 '
#21339735
b1 '
#21340313
b0 '
#21340316
b1 '
#21340626
b0 '
#21340629
b1 '
#21340671
b0 $
#21340673
b1 #
#21340674
b0 #
#21340674
b0 "
#21340707
b1 "
#21340707
b1 !
#21341197
b0 '
#21341200
b1 '
#21341507
b0 !
#21341508
b1 $
#21341640
b0 '
#21341642
b0 +
#21341645
b1 +
#21341647
b1 '
#21342079
b0 '
#21342081
b1 '
#21342419
b0 '
#21342422
b1 '
#21342681
b0 $
#21342681
b1 #
#21342683
b0 #
#21342683
b0 "
#21342717
b1 "
#21342718
b0 '
#21342718
b1 !
#21342721
b1 '
#21343025
b0 '
#21343028
b1 '
#21343482
b0 '
#21343484
b1 '
#21343490
b0 !
#21343491
b1 $
#21343831
b0 '
#21343834
b1 '
#21344143
b0 '
#21344146
b1 '
#21344288
b0 '
#21344290
b0 +
#21344335
b1 +
#21344337
b1 '
#21344673
b0 '
#21344676
b1 '
#21344691
b0 $
#21344691
b1 #
#21344693
b0 #
#21344694
b0 "
#21344724
b1 "
#21344725
b1 !
#21345001
b0 '
#21345003
b0 +
#21345006
b1 +
#21345008
b1 '
#21345267
b0 '
#21345270
b1 '
#21345502
b0 !
#21345503
b1 $
#21345562
b0 '
#21345565
b1 '
#21345908
b0 '
#21345911
b1 '
#21346371
b0 '
#21346374
b1 '
#21346680
b0 $
#21346681
b1 #
#21346684
b0 #
#21346684
b0 "
#21346686
b0 '
#21346689
b1 '
#21346716
b1 "
#21346717
b1 !
#21346834
b0 '
#21346836
b0 +
#21346881
b1 +
#21346882
b1 '
#21347206
b0 '
#21347209
b1 '
#21347497
b0 !
#21347499
b1 $
#21347531
b0 '
#21347534
b1 '
#21348144
b0 '
#21348147
b1 '
#21348671
b0 $
#21348672
b1 #
#21348674
b0 #
#21348674
b0 "
#21348704
b1 "
#21348706
b1 !
#21348756
b0 '
#21348758
b0 +
#21348761
b1 .
#21349468
b0 !
#21349469
b1 $
#21350673
b0 $
#21350675
b1 #
#21350676
b0 #
#21350676
b0 "
#21350707
b1 "
#21350709
b1 !
#21351486
b0 !
#21351487
b1 $
#21351924
b0 .
#21351926
b1 2
#21351928
b1 &
#21351956
b0 &
#21351959
b0 2
#21351963
b1 *
#21351969
b0 *
#21351974
b1 /
#21352663
b0 $
#21352663
b1 #
#21352665
b0 #
#21352666
b0 "
#21352695
b1 "
#21352696
b1 !
#21353461
b0 !
#21353463
b1 $
#21354643
b0 $
#21354645
b1 #
#21354647
b0 #
#21354647
b0 "
#21354676
b1 "
#21354679
b1 !
#21355448
b0 !
#21355450
b1 $
#21356627
b0 $
#21356627
b1 #
#21356629
b0 #
#21356630
b0 "
#21356659
b1 "
#21356661
b1 !
#21357423
b0 !
#21357424
b1 $
#21358379
b0 /
#21358381
b1 0
#21358383
b1 &
#21358388
b0 &
#21358574
b0 $
#21358575
b1 #
#21358577
b0 #
#21358577
b0 "
#21358603
b1 "
#21358604
b1 !
#21359337
b0 !
#21359339
b1 $
#21360398
b0 $
#21360399
b1 #
#21360401
b0 #
#21360401
b0 "
#21360427
b1 "
#21360428
b1 !
#21361165
b0 !
#21361166
b1 $
#21362247
b0 $
#21362248
b1 #
#21362250
b0 #
#21362250
b0 "
#21362276
b1 "
#21362277
b1 !
#21363012
b0 !
#21363013
b1 $
#21364082
b0 $
#21364083
b1 #
#21364085
b0 #
#21364085
b0 "
#21364111
b1 "
#21364111
b1 !
#21364841
b0 !
#21364842
b1 $
#21365913
b0 $
#21365914
b1 #
#21365916
b0 #
#21365916
b0 "
#21365941
b1 "
#21365942
b1 !
#21366689
b0 !
#21366690
b1 $
#21367743
b0 $
#21367743
b1 #
#21367745
b0 #
#21367745
b0 "
#21367772
b1 "
#21367773
b1 !
#21368513
b0 !
#21368514
b1 $
#21369560
b0 $
#21369561
b1 #
#21369563
b0 #
#21369563
b0 "
#21369589
b1 "
#21369589
b1 !
#21370336
b0 !
#21370337
b1 $
#21371386
b0 $
#21371386
b1 #
#21371388
b0 #
#21371388
b0 "
#21371415
b1 "
#21371415
b1 !
#21372154
b0 !
#21372155
b1 $
#21372445
b1 &
#21372450
b0 &
#21373211
b0 $
#21373212
b1 #
#21373214
b0 #
#21373214
b0 "
#21373240
b1 "
#21373241
b1 !
#21373969
b0 !
#21373970
b1 $
#21375027
b0 $
#21375028
b1 #
#21375030
b0 #
#21375030
b0 "
#21375056
b1 "
#21375057
b1 !
#21375787
b0 !
#21375788
b1 $
#21376847
b0 $
#21376848
b1 #
#21376850
b0 #
#21376850
b0 "
#21376876
b1 "
#21376877
b1 !
#21377612
b0 !
#21377613
b1 $
#21378676
b0 $
#21378677
b1 #
#21378679
b0 #
#21378679
b0 "
#21378704
b1 "
#21378704
b1 !
#21379441
b0 !
#21379443
b1 $
#21380499
b0 $
#21380499
b1 #
#21380501
b0 #
#21380501
b0 "
#21380526
b1 "
#21380528
b1 !
#21381272
b0 !
#21381273
b1 $
#21382328
b0 $
#21382329
b1 #
#21382331
b0 #
#21382331
b0 "
#21382358
b1 "
#21382359
b1 !
#21383096
b0 !
#21383098
b1 $
#21384161
b0 $
#21384162
b1 #
#21384164
b0 #
#21384164
b0 "
#21384189
b1 "
#21384190
b1 !
